D:\.MyEclipse 8.5\IPMAPP_code\hugh\src\main\java\org\byron\service\Impl\UserServiceImpl.java
D:\.MyEclipse 8.5\IPMAPP_code\hugh\src\main\java\org\byron\dao\CourseInfoMapper.java
D:\.MyEclipse 8.5\IPMAPP_code\hugh\src\main\java\org\byron\model\CourseUserInfo.java
D:\.MyEclipse 8.5\IPMAPP_code\hugh\src\main\java\org\byron\dao\UserInfoMapper.java
D:\.MyEclipse 8.5\IPMAPP_code\hugh\src\main\java\org\byron\dao\CourseUserInfoMapper.java
D:\.MyEclipse 8.5\IPMAPP_code\hugh\src\main\java\org\byron\model\CourseInfo.java
D:\.MyEclipse 8.5\IPMAPP_code\hugh\src\main\java\org\byron\model\UserInfo.java
D:\.MyEclipse 8.5\IPMAPP_code\hugh\src\main\java\org\byron\controller\UserController.java
D:\.MyEclipse 8.5\IPMAPP_code\hugh\src\main\java\org\byron\service\UserService.java
